question,answer
"Which shape has more corners, a square or a pentagon?",Pentagon
"Which number shows that we have nothing?",Zero
"Zaire was born in August, Aadan was born December. Which one is older?",Zaire
"What is the sum of all the interior angles of a triangle in degrees?",180
"What is the next prime number after 17?",19
"What is the smallest two digit number?",10
"How many months are in a year?",12
"How many items are in a dozen?",12
"Is 2 a prime number?",Yes
"Which prime number is closest to 100?",101
"What is the term used for the perimeter of a circle?",Circumference
"What is the name of the number system that has a base of two?",Binary
"What is the name of the longest side of a right-angled triangle?",Hypotenuse
"What is the only prime number that is even?",2
"What is the only number that does not have its Roman numeral?",0
