[
  {
    "created_on": "2022-11-21 08:54:03",
    "user_id": 1,
    "question": "Who are you?",
    "answer": "I'm Qary!"
  },
  {
    "created_on": "2022-11-21 08:55:23",
    "user_id": 2,
    "question": "Which number is equivalent to (16^2)÷(4^2)",
    "answer": "3.0"
  },
  {
    "created_on": "2022-11-21 08:57:03",
    "user_id": 2,
    "question": "Find the perimeter of a rectangle with a length equal to 7 cm and width equal to 3 cm.",
    "answer": "21 cm"
  },
    {
    "created_on": "2022-11-21 08:58:33",
    "user_id": 3,
    "question": "The area of a rectangular fence is 100 meters. If the width of the fence is 8 meters, then find its length.",
    "answer": "12.5 m"
  }
]
